Network Science in R - A Tidy Approach
…
# read the ties file into the variable ties
ties <- read_csv("ties.csv")

## Parsed with column specification:
## cols(
##   from = col_integer(),
##   to = col_integer(),
##   weight = col_integer()
## )

# print nodes
nodes

## # A tibble: 64 x 2
##       id name              
##    <int> <chr>             
##  1     1 Jamal Zougam      
##  2     2 Mohamed Bekkali   
##  3     3 Mohamed Chaoui    
##  4     4 Vinay Kholy       
##  5     5 Suresh Kumar      
##  6     6 Mohamed Chedadi   
##  7     7 Imad Eddin Barakat
##  8     8 Abdelaziz Benyaich
##  9     9 Abu Abderrahame   
## 10    10 Omar Dhegayes     
## # ... with 54 more rows

# print ties
ties

## # A tibble: 243 x 3
##     from    to weight
##    <int> <int>  <int>
##  1     1     2      1
##  2     1     3      3
##  3     1     4      1
##  4     1     5      1
##  5     1     6      1
##  6     1     7      4
##  7     1     8      1
##  8     1     9      1
##  9     1    11      4
## 10     1    12      1
## # ... with 233 more rows
…
Arrange the terrorists in the nodes data frame in decreasing order of degree.

# compute the degrees of the nodes
dgr <- degree(g)

# add the degrees to the data frame object
nodes <- mutate(nodes, degree = dgr)

# add the degrees to the network object
V(g)$degree <- dgr

# arrange the terrorists in decreasing order of degree
arrange(nodes, -degree)

## # A tibble: 64 x 3
##       id name               degree
##    <int> <chr>               <dbl>
##  1     1 Jamal Zougam          29.
##  2     3 Mohamed Chaoui        27.
##  3     7 Imad Eddin Barakat    22.
##  4    11 Amer Azizi            18.
##  5    38 Said Berrak           17.
##  6    17 Galeb Kalaje          16.
##  7    23 Naima Oulad Akcha     16.
##  8    18 Abderrahim Zbakh      15.
##  9    28 Jamal Ahmidan         14.
## 10    55 Mohamed El Egipcio    13.
## # ... with 54 more rows
…
Arrange the terrorists in decreasing order of strength and degree. Do you notice any correlation between the two?

# compute node strengths
stg <- strength(g)

# add strength to the data frame object
nodes <- mutate(nodes, strength = stg)

# add strength to the network object
V(g)$strength <- stg

# arrange terrorists in decreasing order of strength and then in decreasing order of degree
arrange(nodes, -strength)

## # A tibble: 64 x 4
##       id name               degree strength
##    <int> <chr>               <dbl>    <dbl>
##  1     1 Jamal Zougam          29.      43.
##  2     7 Imad Eddin Barakat    22.      35.
##  3     3 Mohamed Chaoui        27.      34.
##  4    11 Amer Azizi            18.      27.
##  5    17 Galeb Kalaje          16.      21.
##  6    15 Mohamed Belfatmi      11.      19.
##  7    38 Said Berrak           17.      19.
##  8    16 Said Bahaji           11.      17.
##  9    23 Naima Oulad Akcha     16.      16.
## 10    18 Abderrahim Zbakh      15.      15.
## # ... with 54 more rows

arrange(nodes, -degree)

## # A tibble: 64 x 4
##       id name               degree strength
##    <int> <chr>               <dbl>    <dbl>
##  1     1 Jamal Zougam          29.      43.
##  2     3 Mohamed Chaoui        27.      34.
##  3     7 Imad Eddin Barakat    22.      35.
##  4    11 Amer Azizi            18.      27.
##  5    38 Said Berrak           17.      19.
##  6    17 Galeb Kalaje          16.      21.
##  7    23 Naima Oulad Akcha     16.      16.
##  8    18 Abderrahim Zbakh      15.      15.
##  9    28 Jamal Ahmidan         14.      14.
## 10    55 Mohamed El Egipcio    13.      14.
## # ... with 54 more rows
…
Select only the relevant variables: ids and names of tied terrorists and betweenness.

# select only relevant variables and save to ties
ties_selected <- ties_joined %>% 
  select(from, to, name_from = name.x, name_to = name.y, betweenness)

INSTRUCTIONS 3/3

Finally, arrange the ties in decreasing order of betweenness.

# arrange named ties in decreasing order of betweenness
arrange(ties_selected, -betweenness)

## # A tibble: 243 x 5
##     from    to name_from          name_to               betweenness
##    <int> <int> <chr>              <chr>                       <dbl>
##  1    37    57 Abdeluahid Berrak  Semaan Gaby Eid              346.
##  2     1    37 Jamal Zougam       Abdeluahid Berrak            292.
##  3     1     7 Jamal Zougam       Imad Eddin Barakat           268.
##  4     1    11 Jamal Zougam       Amer Azizi                   185.
##  5    11    55 Amer Azizi         Mohamed El Egipcio           164.
##  6     1    23 Jamal Zougam       Naima Oulad Akcha            140.
##  7     7    50 Imad Eddin Barakat Taysir Alouny                132.
##  8     1    24 Jamal Zougam       Abdelkarim el Mejjati        108.
##  9    20    57 Jos Emilio Surez Semaan Gaby Eid              106.
## 10     1    18 Jamal Zougam       Abderrahim Zbakh             100.
## # ... with 233 more rows
…
